{
	"info": {
		"_postman_id": "bbc0096a-ea1d-491a-9fb3-b594332ca5bc",
		"name": "S39",
		"schema": "https://schema.getpostman.com/json/collection/v2.1.0/collection.json",
		"_exporter_id": "28282230",
		"_collection_link": "https://planetary-sunset-445393.postman.co/workspace/B305-My-Workspace~721050f3-f589-477e-8002-aed28b699fd8/collection/28282230-bbc0096a-ea1d-491a-9fb3-b594332ca5bc?action=share&source=collection_link&creator=28282230"
	},
	"item": [
		{
			"name": "Getting Specific Post",
			"request": {
				"method": "GET",
				"header": []
			},
			"response": []
		},
		{
			"name": "Create a new post",
			"request": {
				"method": "POST",
				"header": []
			},
			"response": []
		},
		{
			"name": "Updating a post",
			"request": {
				"method": "PUT",
				"header": []
			},
			"response": []
		},
		{
			"name": "Deleting a post",
			"request": {
				"method": "DELETE",
				"header": []
			},
			"response": []
		}
	]
}