{
	"info": {
		"_postman_id": "c3d63e8f-7810-46b9-9a54-81cf86abfb13",
		"name": "S42 ACTIVITY",
		"schema": "https://schema.getpostman.com/json/collection/v2.1.0/collection.json",
		"_exporter_id": "28282230",
		"_collection_link": "https://planetary-sunset-445393.postman.co/workspace/721050f3-f589-477e-8002-aed28b699fd8/collection/28282230-c3d63e8f-7810-46b9-9a54-81cf86abfb13?action=share&source=collection_link&creator=28282230"
	},
	"item": [
		{
			"name": "GET TASK",
			"request": {
				"method": "GET",
				"header": [],
				"url": {
					"raw": "localhost:4000/tasks/64f8740b8f20a6efcec90935",
					"host": [
						"localhost"
					],
					"port": "4000",
					"path": [
						"tasks",
						"64f8740b8f20a6efcec90935"
					]
				}
			},
			"response": []
		},
		{
			"name": "COMPLETED TASK",
			"request": {
				"method": "PUT",
				"header": [],
				"url": {
					"raw": "localhost:4000/tasks/64f8740b8f20a6efcec90935/complete",
					"host": [
						"localhost"
					],
					"port": "4000",
					"path": [
						"tasks",
						"64f8740b8f20a6efcec90935",
						"complete"
					]
				}
			},
			"response": []
		}
	]
}